%YAML 1.1
%TAG !u! tag:unity3d.com,2011:
--- !u!74 &7400000
AnimationClip:
  m_ObjectHideFlags: 0
  m_CorrespondingSourceObject: {fileID: 0}
  m_PrefabInstance: {fileID: 0}
  m_PrefabAsset: {fileID: 0}
  m_Name: title_anim_seq
  serializedVersion: 7
  m_Legacy: 1
  m_Compressed: 0
  m_UseHighQualityCurve: 1
  m_RotationCurves: []
  m_CompressedRotationCurves: []
  m_EulerCurves: []
  m_PositionCurves: []
  m_ScaleCurves: []
  m_FloatCurves: []
  m_PPtrCurves:
  - serializedVersion: 2
    curve:
    - time: 0
      value: {fileID: 21300000, guid: 4186e237fc5df01469a81a84c54a755f, type: 3}
    - time: 0.016666668
      value: {fileID: 21300000, guid: 85fedc3cb6acea24ca119e5606a1eb69, type: 3}
    - time: 0.033333335
      value: {fileID: 21300000, guid: 15eb7b6c3bc5f7d42940f7c8dc60f849, type: 3}
    - time: 0.05
      value: {fileID: 21300000, guid: 4b41aaec547548f4a9b0a46bae376382, type: 3}
    - time: 0.06666667
      value: {fileID: 21300000, guid: f5ab6b002517798448a6b24e9fa2c0f0, type: 3}
    - time: 0.083333336
      value: {fileID: 21300000, guid: 914b3e613dd09404fbc820940a57c302, type: 3}
    - time: 0.1
      value: {fileID: 21300000, guid: c6f0f92bfacceb643a73c59ac1c85fc2, type: 3}
    - time: 0.11666667
      value: {fileID: 21300000, guid: d63cf06927a24084ea0849efea4a26fb, type: 3}
    - time: 0.13333334
      value: {fileID: 21300000, guid: e4782c48d94026c43a48be6684944b22, type: 3}
    - time: 0.15
      value: {fileID: 21300000, guid: 02ef860b4fa41514ebf9e9ec0ec03dc5, type: 3}
    - time: 0.16666667
      value: {fileID: 21300000, guid: bbdf766404e4a8f4293502addb5f90ae, type: 3}
    - time: 0.18333334
      value: {fileID: 21300000, guid: 9deca2f0217306e499d8e15ef523bd05, type: 3}
    - time: 0.2
      value: {fileID: 21300000, guid: dac8cac50fd75a547b0c6966b6038527, type: 3}
    - time: 0.21666667
      value: {fileID: 21300000, guid: e1431dda9f371bf4c8957d0d9b157c3b, type: 3}
    - time: 0.23333333
      value: {fileID: 21300000, guid: f1e949878dfe4834fa6bc51fc09057a0, type: 3}
    - time: 0.25
      value: {fileID: 21300000, guid: 076eb7cb0c713994cb61b588211f1b26, type: 3}
    - time: 0.26666668
      value: {fileID: 21300000, guid: a17597b3977a40b448ef9c4895bfe029, type: 3}
    - time: 0.28333333
      value: {fileID: 21300000, guid: 85483c9bdde890f4a9bf8f5ef1f6c750, type: 3}
    - time: 0.3
      value: {fileID: 21300000, guid: ab43d18aceaee5b4795dbfa513c75d74, type: 3}
    - time: 0.31666666
      value: {fileID: 21300000, guid: 7bca3c457ac5e9644864a88ae534c7b0, type: 3}
    - time: 0.33333334
      value: {fileID: 21300000, guid: 6e20afa19b006864eb449c092dbdd8fb, type: 3}
    - time: 0.35
      value: {fileID: 21300000, guid: 1a7d87669ea7fb24ea6f38956d6fff17, type: 3}
    - time: 0.36666667
      value: {fileID: 21300000, guid: c8b87f1cc15e6474a944f7fdda121848, type: 3}
    - time: 0.38333333
      value: {fileID: 21300000, guid: 9c01875eacdc9d34aa8c07767f1d1e33, type: 3}
    - time: 0.4
      value: {fileID: 21300000, guid: 2bec4adfe0c0312409f6949995638478, type: 3}
    - time: 0.41666666
      value: {fileID: 21300000, guid: cbabcd3df11c44b42be5b49dc235d62a, type: 3}
    - time: 0.43333334
      value: {fileID: 21300000, guid: 3007e712eec4d5b42bb16b254017326f, type: 3}
    - time: 0.45
      value: {fileID: 21300000, guid: 6a7a3e8101b3e8243ad02f5c45ca0452, type: 3}
    - time: 0.46666667
      value: {fileID: 21300000, guid: 98065db6c99d6234a9ada742ec1db4e2, type: 3}
    - time: 0.48333332
      value: {fileID: 21300000, guid: 654867234feef024facba1cf3673837e, type: 3}
    - time: 0.5
      value: {fileID: 21300000, guid: a452d0e13130e624eb3149ac22deb184, type: 3}
    - time: 0.51666665
      value: {fileID: 21300000, guid: dc2ded49f773a92459484b07b75d3422, type: 3}
    - time: 0.53333336
      value: {fileID: 21300000, guid: 99f46000f692b3741b4e57545253a4c4, type: 3}
    - time: 0.55
      value: {fileID: 21300000, guid: 0ff8cc7c09134f14c865c39955d4fc5f, type: 3}
    - time: 0.56666666
      value: {fileID: 21300000, guid: fc82518ee10284b4392cc9a1d8c03be8, type: 3}
    - time: 0.5833333
      value: {fileID: 21300000, guid: f5846d932fe46844a8dee116f47829e4, type: 3}
    - time: 0.6
      value: {fileID: 21300000, guid: 7faa8624688ab8b4f8d801b029c8879f, type: 3}
    attribute: m_Sprite
    path: 
    classID: 212
    script: {fileID: 0}
    flags: 2
  m_SampleRate: 60
  m_WrapMode: 0
  m_Bounds:
    m_Center: {x: 0, y: 0, z: 0}
    m_Extent: {x: 0, y: 0, z: 0}
  m_ClipBindingConstant:
    genericBindings: []
    pptrCurveMapping: []
  m_AnimationClipSettings:
    serializedVersion: 2
    m_AdditiveReferencePoseClip: {fileID: 0}
    m_AdditiveReferencePoseTime: 0
    m_StartTime: 0
    m_StopTime: 0.6166667
    m_OrientationOffsetY: 0
    m_Level: 0
    m_CycleOffset: 0
    m_HasAdditiveReferencePose: 0
    m_LoopTime: 1
    m_LoopBlend: 0
    m_LoopBlendOrientation: 0
    m_LoopBlendPositionY: 0
    m_LoopBlendPositionXZ: 0
    m_KeepOriginalOrientation: 0
    m_KeepOriginalPositionY: 1
    m_KeepOriginalPositionXZ: 0
    m_HeightFromFeet: 0
    m_Mirror: 0
  m_EditorCurves: []
  m_EulerEditorCurves: []
  m_HasGenericRootTransform: 0
  m_HasMotionFloatCurves: 0
  m_Events: []
