%YAML 1.1
%TAG !u! tag:unity3d.com,2011:
--- !u!1 &3932706679041197322
GameObject:
  m_ObjectHideFlags: 0
  m_CorrespondingSourceObject: {fileID: 0}
  m_PrefabInstance: {fileID: 0}
  m_PrefabAsset: {fileID: 0}
  serializedVersion: 6
  m_Component:
  - component: {fileID: 3941993688417836746}
  - component: {fileID: 7565614069744306985}
  - component: {fileID: 7987200536883782606}
  m_Layer: 0
  m_Name: SfxPlayer
  m_TagString: Untagged
  m_Icon: {fileID: 0}
  m_NavMeshLayer: 0
  m_StaticEditorFlags: 0
  m_IsActive: 1
--- !u!4 &3941993688417836746
Transform:
  m_ObjectHideFlags: 0
  m_CorrespondingSourceObject: {fileID: 0}
  m_PrefabInstance: {fileID: 0}
  m_PrefabAsset: {fileID: 0}
  m_GameObject: {fileID: 3932706679041197322}
  serializedVersion: 2
  m_LocalRotation: {x: 0, y: 0, z: 0, w: 1}
  m_LocalPosition: {x: -0.63573104, y: -0.051669627, z: 1421.9843}
  m_LocalScale: {x: 1, y: 1, z: 1}
  m_ConstrainProportionsScale: 0
  m_Children: []
  m_Father: {fileID: 0}
  m_LocalEulerAnglesHint: {x: 0, y: 0, z: 0}
--- !u!82 &7565614069744306985
AudioSource:
  m_ObjectHideFlags: 0
  m_CorrespondingSourceObject: {fileID: 0}
  m_PrefabInstance: {fileID: 0}
  m_PrefabAsset: {fileID: 0}
  m_GameObject: {fileID: 3932706679041197322}
  m_Enabled: 1
  serializedVersion: 4
  OutputAudioMixerGroup: {fileID: 0}
  m_audioClip: {fileID: 0}
  m_PlayOnAwake: 1
  m_Volume: 1
  m_Pitch: 1
  Loop: 0
  Mute: 0
  Spatialize: 0
  SpatializePostEffects: 0
  Priority: 128
  DopplerLevel: 1
  MinDistance: 1
  MaxDistance: 500
  Pan2D: 0
  rolloffMode: 0
  BypassEffects: 0
  BypassListenerEffects: 0
  BypassReverbZones: 0
  rolloffCustomCurve:
    serializedVersion: 2
    m_Curve:
    - serializedVersion: 3
      time: 0
      value: 1
      inSlope: 0
      outSlope: 0
      tangentMode: 0
      weightedMode: 0
      inWeight: 0.33333334
      outWeight: 0.33333334
    - serializedVersion: 3
      time: 1
      value: 0
      inSlope: 0
      outSlope: 0
      tangentMode: 0
      weightedMode: 0
      inWeight: 0.33333334
      outWeight: 0.33333334
    m_PreInfinity: 2
    m_PostInfinity: 2
    m_RotationOrder: 4
  panLevelCustomCurve:
    serializedVersion: 2
    m_Curve:
    - serializedVersion: 3
      time: 0
      value: 0
      inSlope: 0
      outSlope: 0
      tangentMode: 0
      weightedMode: 0
      inWeight: 0.33333334
      outWeight: 0.33333334
    m_PreInfinity: 2
    m_PostInfinity: 2
    m_RotationOrder: 4
  spreadCustomCurve:
    serializedVersion: 2
    m_Curve:
    - serializedVersion: 3
      time: 0
      value: 0
      inSlope: 0
      outSlope: 0
      tangentMode: 0
      weightedMode: 0
      inWeight: 0.33333334
      outWeight: 0.33333334
    m_PreInfinity: 2
    m_PostInfinity: 2
    m_RotationOrder: 4
  reverbZoneMixCustomCurve:
    serializedVersion: 2
    m_Curve:
    - serializedVersion: 3
      time: 0
      value: 1
      inSlope: 0
      outSlope: 0
      tangentMode: 0
      weightedMode: 0
      inWeight: 0.33333334
      outWeight: 0.33333334
    m_PreInfinity: 2
    m_PostInfinity: 2
    m_RotationOrder: 4
--- !u!114 &7987200536883782606
MonoBehaviour:
  m_ObjectHideFlags: 0
  m_CorrespondingSourceObject: {fileID: 0}
  m_PrefabInstance: {fileID: 0}
  m_PrefabAsset: {fileID: 0}
  m_GameObject: {fileID: 3932706679041197322}
  m_Enabled: 1
  m_EditorHideFlags: 0
  m_Script: {fileID: 11500000, guid: 379682720c3460c41aa9b3bf7865a619, type: 3}
  m_Name: 
  m_EditorClassIdentifier: 
  sfx:
  - id: btn-tap-1
    clip: {fileID: 8300000, guid: 9f023d366d2e600469150dde2752aa09, type: 3}
  - id: btn-tap-2
    clip: {fileID: 8300000, guid: 0f11cd880d4ae674396fe4942decbbbe, type: 3}
  - id: btn-tap-3
    clip: {fileID: 8300000, guid: 4cb1ced931d77f14fab8fc3399db17bb, type: 3}
  - id: add-friend
    clip: {fileID: 8300000, guid: f503935108e24ba41a4222312fb722d3, type: 3}
  - id: message-pop-up
    clip: {fileID: 8300000, guid: 7407ee0cd4913ca40919cc23ff743c96, type: 3}
  - id: message-away
    clip: {fileID: 8300000, guid: d1d1d91b0bb445c42afeb74a524087a7, type: 3}
  - id: paper-fold
    clip: {fileID: 8300000, guid: 2bf58953152baef4887c87b438bcf683, type: 3}
  - id: possitive-confirm
    clip: {fileID: 8300000, guid: 1285fc74e195df34d8189d0c22bb6ff8, type: 3}
  - id: select
    clip: {fileID: 8300000, guid: 991f36ba118f50446b128eef3309c01d, type: 3}
  - id: textbox-receive
    clip: {fileID: 8300000, guid: e38e50e4877977943b3385b8df42b45a, type: 3}
  - id: textbox-send
    clip: {fileID: 8300000, guid: 62393e4d4085bac419abdb524c0518ed, type: 3}
  - id: victory-bell
    clip: {fileID: 8300000, guid: b0ecc3811c076ec4c8b26fb26387fddb, type: 3}
  - id: whip
    clip: {fileID: 8300000, guid: 85a8d349bfba295469cddae584f46495, type: 3}
  - id: lecture-ambience
    clip: {fileID: 8300000, guid: 652b8aef2e65a3c4089c493d964abb32, type: 3}
  - id: message-keyboard
    clip: {fileID: 8300000, guid: 2bcaaf42b2ab3d943bd89d583af3a779, type: 3}
  source: {fileID: 7565614069744306985}
